{
  "fleet1611059240385": {
    "userId": "TestUser",
    "vehicles": {
      "29-af4-j2": {
        "location": "victor hugo 34"
      },
      "43-sk2-a4": {
        "location": ""
      },
      "j2-dj3-d8": {
        "location": "grande rue 92"
      }
    }
  },
  "fleet1611059240397": {
    "userId": "TestUser2",
    "vehicles": {
      "29-af4-j2": {
        "location": ""
      }
    }
  },
  "fleet1611061210438": {
    "userId": "Shiran",
    "vehicles": {
      "98-dj3-11": {
        "location": "928-382-kk1"
      }
    }
  },
  "fleet1611061414499": {
    "userId": "Romains",
    "vehicles": {}
  }
}